dump.vcd
$date
	Fri Jul 11 04:32:17 2025
$end

$version
	Synopsys VCS version U-2023.03-SP2_Full64
$end

$timescale
	1ns
$end

$comment Csum: 1 125441864b2821e4 $end


$scope module $unit $end
$upscope $end


$scope module tb_top $end
$var reg 1 ! clk $end
$var reg 1 " rst $end

$scope module intf1 $end
$var wire 1 # clk $end
$var wire 1 $ rst $end
$var reg 1 % data_status $end
$var reg 8 & data_in [7:0] $end
$upscope $end


$scope module intf2 $end
$var wire 1 # clk $end
$var wire 1 $ rst $end
$var reg 1 ' mem_en $end
$var reg 2 ( mem_addr [1:0] $end
$var reg 1 ) mem_rd_wr $end
$var reg 8 * mem_data [7:0] $end
$upscope $end


$scope module intf3 $end
$var reg 1 + read_0 $end
$var reg 1 , read_1 $end
$var reg 1 - read_2 $end
$var reg 1 . read_3 $end
$var reg 1 / ready_0 $end
$var reg 1 0 ready_1 $end
$var reg 1 1 ready_2 $end
$var reg 1 2 ready_3 $end
$var reg 8 3 port_0 [7:0] $end
$var reg 8 4 port_1 [7:0] $end
$var reg 8 5 port_2 [7:0] $end
$var reg 8 6 port_3 [7:0] $end
$var wire 1 # clk $end
$var wire 1 $ rst $end
$upscope $end


$scope module s1 $end
$var wire 1 # clk $end
$var wire 1 $ reset $end
$var wire 1 7 data_status $end
$var wire 8 8 data [7:0] $end
$var wire 1 9 mem_en $end
$var wire 1 : mem_rd_wr $end
$var wire 2 ; mem_add [1:0] $end
$var wire 8 < mem_data [7:0] $end
$var wire 8 = port0 [7:0] $end
$var wire 8 > port1 [7:0] $end
$var wire 8 ? port2 [7:0] $end
$var wire 8 @ port3 [7:0] $end
$var wire 1 A ready_0 $end
$var wire 1 B ready_1 $end
$var wire 1 C ready_2 $end
$var wire 1 D ready_3 $end
$var wire 1 E read_0 $end
$var wire 1 F read_1 $end
$var wire 1 G read_2 $end
$var wire 1 H read_3 $end
$var wire 8 I data_out_0 [7:0] $end
$var wire 8 J data_out_1 [7:0] $end
$var wire 8 K data_out_2 [7:0] $end
$var wire 8 L data_out_3 [7:0] $end
$var wire 1 M ll0 $end
$var wire 1 N ll1 $end
$var wire 1 O ll2 $end
$var wire 1 P ll3 $end
$var wire 1 Q empty_0 $end
$var wire 1 R empty_1 $end
$var wire 1 S empty_2 $end
$var wire 1 T empty_3 $end
$var wire 1 U ffee $end
$var wire 1 V ffee0 $end
$var wire 1 W ffee1 $end
$var wire 1 X ffee2 $end
$var wire 1 Y ffee3 $end
$var wire 1 Z ld0 $end
$var wire 1 [ ld1 $end
$var wire 1 \ ld2 $end
$var wire 1 ] ld3 $end
$var wire 1 ^ hold $end
$var wire 1 _ write_enb [3] $end
$var wire 1 ` write_enb [2] $end
$var wire 1 a write_enb [1] $end
$var wire 1 b write_enb [0] $end
$var wire 8 c data_out_fsm [7:0] $end
$var wire 8 d addr [7:0] $end

$scope module queue_0 $end
$var wire 1 # clk $end
$var wire 1 $ reset $end
$var wire 1 b write_enb $end
$var wire 1 E read $end
$var wire 8 e data_in [7:0] $end
$var reg 8 f data_out [7:0] $end
$var wire 1 Q empty $end
$var wire 1 M full $end
$var reg 1 g tmp_empty $end
$var reg 1 h tmp_full $end
$var integer 32 i write_ptr $end
$var integer 32 j read_ptr $end
$upscope $end


$scope module queue_1 $end
$var wire 1 # clk $end
$var wire 1 $ reset $end
$var wire 1 a write_enb $end
$var wire 1 F read $end
$var wire 8 e data_in [7:0] $end
$var reg 8 k data_out [7:0] $end
$var wire 1 R empty $end
$var wire 1 N full $end
$var reg 1 l tmp_empty $end
$var reg 1 m tmp_full $end
$var integer 32 n write_ptr $end
$var integer 32 o read_ptr $end
$upscope $end


$scope module queue_2 $end
$var wire 1 # clk $end
$var wire 1 $ reset $end
$var wire 1 ` write_enb $end
$var wire 1 G read $end
$var wire 8 e data_in [7:0] $end
$var reg 8 p data_out [7:0] $end
$var wire 1 S empty $end
$var wire 1 O full $end
$var reg 1 q tmp_empty $end
$var reg 1 r tmp_full $end
$var integer 32 s write_ptr $end
$var integer 32 t read_ptr $end
$upscope $end


$scope module queue_3 $end
$var wire 1 # clk $end
$var wire 1 $ reset $end
$var wire 1 _ write_enb $end
$var wire 1 H read $end
$var wire 8 e data_in [7:0] $end
$var reg 8 u data_out [7:0] $end
$var wire 1 T empty $end
$var wire 1 P full $end
$var reg 1 v tmp_empty $end
$var reg 1 w tmp_full $end
$var integer 32 x write_ptr $end
$var integer 32 y read_ptr $end
$upscope $end


$scope module in_port $end
$var wire 1 # clk $end
$var wire 1 $ reset $end
$var wire 8 z mem0 [7:0] $end
$var wire 8 { mem1 [7:0] $end
$var wire 8 | mem2 [7:0] $end
$var wire 8 } mem3 [7:0] $end
$var wire 4 ~ write_enb [3:0] $end
$var wire 1 U ffee $end
$var wire 1 ^ hold $end
$var wire 1 7 data_status $end
$var wire 8 8 data_in [7:0] $end
$var reg 8 c data_out [7:0] $end
$var reg 8 d addr [7:0] $end
$var reg 4 "! write_enb_r [3:0] $end
$var reg 1 "" fsm_write_enb $end
$var reg 4 "# state_r [3:0] $end
$var reg 4 "$ state [3:0] $end
$var reg 8 "% parity [7:0] $end
$var reg 8 "& parity_delayed [7:0] $end
$var reg 1 "' sus_data_in $end
$var reg 1 "( error $end
$var wire 1 "' busy $end

$scope begin addr_mux $end
$upscope $end


$scope begin fsm_state $end
$upscope $end


$scope begin fsm_core $end
$upscope $end

$upscope $end

$upscope $end

$upscope $end

$enddefinitions $end

#0
$dumpvars
0!
1"
bxxxxxxxx &
bxxxxxxxx *
bxx (
bxxxxxxxx 6
bxxxxxxxx 5
bxxxxxxxx 4
bxxxxxxxx 3
x"(
xU
xV
xW
xX
xY
x""
x^
xZ
x[
x\
x]
x"'
bxxxxxxxx c
bxxxxxxxx I
bxxxxxxxx J
bxxxxxxxx K
bxxxxxxxx L
bxxxxxxxx d
bxxxxxxxx z
bxxxxxxxx {
bxxxxxxxx |
bxxxxxxxx }
bxxxxxxxx "%
bxxxxxxxx "&
bxxxx "$
bxxxx ~
bxxxx "!
bxxxx "#
xg
xh
bxxxxxxxx f
bxxxxxxxxxxxxxxxxxxxxxxxxxxxxxxxx j
bxxxxxxxxxxxxxxxxxxxxxxxxxxxxxxxx i
xl
xm
bxxxxxxxx k
bxxxxxxxxxxxxxxxxxxxxxxxxxxxxxxxx o
bxxxxxxxxxxxxxxxxxxxxxxxxxxxxxxxx n
xq
xr
bxxxxxxxx p
bxxxxxxxxxxxxxxxxxxxxxxxxxxxxxxxx t
bxxxxxxxxxxxxxxxxxxxxxxxxxxxxxxxx s
xv
xw
bxxxxxxxx u
bxxxxxxxxxxxxxxxxxxxxxxxxxxxxxxxx y
bxxxxxxxxxxxxxxxxxxxxxxxxxxxxxxxx x
bxxxxxxxx 8
bxxxxxxxx =
bxxxxxxxx >
bxxxxxxxx ?
bxxxxxxxx @
bxx ;
bxxxxxxxx <
xb
xa
x`
x_
bxxxxxxxx e
xM
xN
xO
xP
x7
1E
1F
1G
1H
xA
xB
xC
xD
x9
x:
0#
1$
x%
x'
x)
1+
1,
1-
1.
x/
x0
x1
x2
xQ
xR
xS
xT
$end
#1
1!
1#
#2
0!
0#
#3
1!
1#
#4
0!
0#
#5
0"
0$
1!
1#
0"(
b00000000 c
b00000000 e
b00000000 d
b0000 "!
b0000 ~
0b
0a
0`
0_
0""
b0000 "#
b0000 "$
b00000000 "%
b00000000 "&
0"'
b00000000 f
b00000000 I
b00000000 =
b00000000 3
1g
1Q
0A
0/
0h
0M
b00000000000000000000000000000000 i
b00000000000000000000000000000000 j
b00000000 k
b00000000 J
b00000000 >
b00000000 4
1l
1R
0B
00
0m
0N
b00000000000000000000000000000000 n
b00000000000000000000000000000000 o
b00000000 p
b00000000 K
b00000000 ?
b00000000 5
1q
1S
0C
01
0r
0O
b00000000000000000000000000000000 s
b00000000000000000000000000000000 t
b00000000 u
b00000000 L
b00000000 @
b00000000 6
1v
1T
0D
02
0w
0P
b00000000000000000000000000000000 x
b00000000000000000000000000000000 y
x"'
1V
0Z
1W
0[
1X
0\
1Y
0]
1U
0^
0"'
0'
09
b00 (
b00 ;
0)
0:
b00000000 *
b00000000 <
0%
07
b00000000 &
b00000000 8
#6
0!
0#
#7
1!
1#
#8
0!
0#
#9
1!
1#
#10
0!
0#
#11
1!
1#
#12
0!
0#
#13
1!
1#
#14
0!
0#
#15
1!
1#
#16
0!
0#
#17
1!
1#
#18
0!
0#
#19
1!
1#
#20
0!
0#
#21
1!
1#
#22
0!
0#
#23
1!
1#
#24
0!
0#
#25
1"
1$
1!
1#
#26
0!
0#
#27
1!
1#
1'
19
#28
0!
0#
#29
1!
1#
1)
1:
#30
0!
0#
#31
1!
1#
b00000000 z
b10 (
b10 ;
b11111110 *
b11111110 <
#32
0!
0#
#33
1!
1#
b11111110 |
0)
0:
#34
0!
0#
#35
1!
1#
#36
0!
0#
#37
1!
1#
1)
1:
#38
0!
0#
#39
1!
1#
b01 (
b01 ;
b01111000 *
b01111000 <
#40
0!
0#
#41
1!
1#
b01111000 {
0)
0:
#42
0!
0#
#43
1!
1#
#44
0!
0#
#45
1!
1#
1)
1:
#46
0!
0#
#47
1!
1#
b00 (
b00 ;
b10110010 *
b10110010 <
#48
0!
0#
#49
1!
1#
b10110010 z
0)
0:
#50
0!
0#
#51
1!
1#
#52
0!
0#
#53
1!
1#
1)
1:
#54
0!
0#
#55
1!
1#
b11 (
b11 ;
b11101010 *
b11101010 <
#56
0!
0#
#57
1!
1#
b11101010 }
0)
0:
0'
09
#58
0!
0#
#59
1!
1#
#60
0!
0#
#61
1!
1#
1%
17
#62
0!
0#
#63
1!
1#
b11111110 &
b11111110 8
b0001 "$
b11111110 d
b11111110 c
b11111110 e
1""
#64
0!
0#
#65
1!
1#
b0001 "#
b01000001 &
b01000001 8
b01000001 c
b01000001 e
#66
0!
0#
#67
1!
1#
b00101001 &
b00101001 8
b00101001 c
b00101001 e
#68
0!
0#
#69
1!
1#
b11111110 &
b11111110 8
b11111110 c
b11111110 e
#70
0!
0#
#71
1!
1#
b01000001 &
b01000001 8
b01000001 c
b01000001 e
#72
0!
0#
#73
1!
1#
b00101001 &
b00101001 8
b00101001 c
b00101001 e
#74
0!
0#
#75
1!
1#
b10111001 &
b10111001 8
b10111001 c
b10111001 e
#76
0!
0#
#77
1!
1#
b01101100 &
b01101100 8
b01101100 c
b01101100 e
#78
0!
0#
#79
1!
1#
b10100111 &
b10100111 8
b10100111 c
b10100111 e
#80
0!
0#
#81
1!
1#
b10100011 &
b10100011 8
b10100011 c
b10100011 e
#82
0!
0#
#83
1!
1#
b10011100 &
b10011100 8
b10011100 c
b10011100 e
#84
0!
0#
#85
1!
1#
b00110100 &
b00110100 8
b00110100 c
b00110100 e
#86
0!
0#
#87
1!
1#
b00111001 &
b00111001 8
b00111001 c
b00111001 e
#88
0!
0#
#89
1!
1#
b10000011 &
b10000011 8
b10000011 c
b10000011 e
#90
0!
0#
#91
1!
1#
b00010100 &
b00010100 8
b00010100 c
b00010100 e
#92
0!
0#
#93
1!
1#
b11110110 &
b11110110 8
b11110110 c
b11110110 e
#94
0!
0#
#95
1!
1#
b01010010 &
b01010010 8
b01010010 c
b01010010 e
#96
0!
0#
#97
1!
1#
b11001001 &
b11001001 8
b11001001 c
b11001001 e
#98
0!
0#
#99
1!
1#
b11011011 &
b11011011 8
b11011011 c
b11011011 e
#100
0!
0#
#101
1!
1#
b00110110 &
b00110110 8
b00110110 c
b00110110 e
#102
0!
0#
#103
1!
1#
b01101001 &
b01101001 8
b01101001 c
b01101001 e
#104
0!
0#
#105
1!
1#
b10001010 &
b10001010 8
b10001010 c
b10001010 e
#106
0!
0#
#107
1!
1#
b10011001 &
b10011001 8
b10011001 c
b10011001 e
#108
0!
0#
#109
1!
1#
b00010111 &
b00010111 8
b00010111 c
b00010111 e
#110
0!
0#
#111
1!
1#
b00011000 &
b00011000 8
b00011000 c
b00011000 e
#112
0!
0#
#113
1!
1#
b11010001 &
b11010001 8
b11010001 c
b11010001 e
#114
0!
0#
#115
1!
1#
b11101101 &
b11101101 8
b11101101 c
b11101101 e
#116
0!
0#
#117
1!
1#
b11000001 &
b11000001 8
b11000001 c
b11000001 e
#118
0!
0#
#119
1!
1#
b11111000 &
b11111000 8
b11111000 c
b11111000 e
#120
0!
0#
#121
1!
1#
b01101010 &
b01101010 8
b01101010 c
b01101010 e
#122
0!
0#
#123
1!
1#
b11110100 &
b11110100 8
b11110100 c
b11110100 e
#124
0!
0#
#125
1!
1#
b01001110 &
b01001110 8
b01001110 c
b01001110 e
#126
0!
0#
#127
1!
1#
b10000011 &
b10000011 8
b10000011 c
b10000011 e
#128
0!
0#
#129
1!
1#
b10101111 &
b10101111 8
b10101111 c
b10101111 e
#130
0!
0#
#131
1!
1#
b01000110 &
b01000110 8
b01000110 c
b01000110 e
#132
0!
0#
#133
1!
1#
b10100101 &
b10100101 8
b10100101 c
b10100101 e
#134
0!
0#
#135
1!
1#
b00000100 &
b00000100 8
b00000100 c
b00000100 e
#136
0!
0#
#137
1!
1#
b00010001 &
b00010001 8
b00010001 c
b00010001 e
#138
0!
0#
#139
1!
1#
b10111001 &
b10111001 8
b10111001 c
b10111001 e
#140
0!
0#
#141
1!
1#
b10000011 &
b10000011 8
b10000011 c
b10000011 e
#142
0!
0#
#143
1!
1#
b00011000 &
b00011000 8
b00011000 c
b00011000 e
#144
0!
0#
#145
1!
1#
b10001100 &
b10001100 8
b10001100 c
b10001100 e
#146
0!
0#
#147
1!
1#
b00011110 &
b00011110 8
b00011110 c
b00011110 e
#148
0!
0#
#149
1!
1#
b10000111 &
b10000111 8
b10000111 c
b10000111 e
#150
0!
0#
#151
1!
1#
b01000111 &
b01000111 8
b01000111 c
b01000111 e
#152
0!
0#
#153
1!
1#
b10100100 &
b10100100 8
b10100100 c
b10100100 e
#154
0!
0#
#155
1!
1#
b10111100 &
b10111100 8
b10111100 c
b10111100 e
#156
0!
0#
#157
1!
1#
b11010011 &
b11010011 8
b11010011 c
b11010011 e
#158
0!
0#
#159
1!
1#
0%
07
b0010 "$
#160
0!
0#
#161
1!
1#
b0010 "#
b0000 "$
0""
b00000000 &
b00000000 8
b00000000 c
b00000000 e
#162
0!
0#
#163
1!
1#
b0000 "#
#164
0!
0#
#165
1!
1#
#166
0!
0#
#167
1!
1#
#168
0!
0#
#169
1!
1#
1%
17
#170
0!
0#
#171
1!
1#
b01111000 &
b01111000 8
b0001 "$
b01111000 d
b01111000 c
b01111000 e
1""
#172
0!
0#
#173
1!
1#
b0001 "#
b10001111 &
b10001111 8
b10001111 c
b10001111 e
#174
0!
0#
#175
1!
1#
b01001111 &
b01001111 8
b01001111 c
b01001111 e
#176
0!
0#
#177
1!
1#
b01111000 &
b01111000 8
b01111000 c
b01111000 e
#178
0!
0#
#179
1!
1#
b10001111 &
b10001111 8
b10001111 c
b10001111 e
#180
0!
0#
#181
1!
1#
b01001111 &
b01001111 8
b01001111 c
b01001111 e
#182
0!
0#
#183
1!
1#
b01011011 &
b01011011 8
b01011011 c
b01011011 e
#184
0!
0#
#185
1!
1#
b10000000 &
b10000000 8
b10000000 c
b10000000 e
#186
0!
0#
#187
1!
1#
b10001010 &
b10001010 8
b10001010 c
b10001010 e
#188
0!
0#
#189
1!
1#
b01000010 &
b01000010 8
b01000010 c
b01000010 e
#190
0!
0#
#191
1!
1#
b11010101 &
b11010101 8
b11010101 c
b11010101 e
#192
0!
0#
#193
1!
1#
b10000001 &
b10000001 8
b10000001 c
b10000001 e
#194
0!
0#
#195
1!
1#
b01101010 &
b01101010 8
b01101010 c
b01101010 e
#196
0!
0#
#197
1!
1#
b10001101 &
b10001101 8
b10001101 c
b10001101 e
#198
0!
0#
#199
1!
1#
b11001101 &
b11001101 8
b11001101 c
b11001101 e
#200
0!
0#
#201
1!
1#
b00010100 &
b00010100 8
b00010100 c
b00010100 e
#202
0!
0#
#203
1!
1#
b00011001 &
b00011001 8
b00011001 c
b00011001 e
#204
0!
0#
#205
1!
1#
b00101010 &
b00101010 8
b00101010 c
b00101010 e
#206
0!
0#
#207
1!
1#
b01111111 &
b01111111 8
b01111111 c
b01111111 e
#208
0!
0#
#209
1!
1#
b01111000 &
b01111000 8
b01111000 c
b01111000 e
#210
0!
0#
#211
1!
1#
b01011111 &
b01011111 8
b01011111 c
b01011111 e
#212
0!
0#
#213
1!
1#
b00110101 &
b00110101 8
b00110101 c
b00110101 e
#214
0!
0#
#215
1!
1#
b01100111 &
b01100111 8
b01100111 c
b01100111 e
#216
0!
0#
#217
1!
1#
b00000100 &
b00000100 8
b00000100 c
b00000100 e
#218
0!
0#
#219
1!
1#
b10011100 &
b10011100 8
b10011100 c
b10011100 e
#220
0!
0#
#221
1!
1#
b11000111 &
b11000111 8
b11000111 c
b11000111 e
#222
0!
0#
#223
1!
1#
b00111111 &
b00111111 8
b00111111 c
b00111111 e
#224
0!
0#
#225
1!
1#
b10000010 &
b10000010 8
b10000010 c
b10000010 e
#226
0!
0#
#227
1!
1#
b01000000 &
b01000000 8
b01000000 c
b01000000 e
#228
0!
0#
#229
1!
1#
b11100100 &
b11100100 8
b11100100 c
b11100100 e
#230
0!
0#
#231
1!
1#
b11111011 &
b11111011 8
b11111011 c
b11111011 e
#232
0!
0#
#233
1!
1#
b00010111 &
b00010111 8
b00010111 c
b00010111 e
#234
0!
0#
#235
1!
1#
b01100111 &
b01100111 8
b01100111 c
b01100111 e
#236
0!
0#
#237
1!
1#
b01101110 &
b01101110 8
b01101110 c
b01101110 e
#238
0!
0#
#239
1!
1#
b00101100 &
b00101100 8
b00101100 c
b00101100 e
#240
0!
0#
#241
1!
1#
b11110011 &
b11110011 8
b11110011 c
b11110011 e
#242
0!
0#
#243
1!
1#
b10110010 &
b10110010 8
b10110010 c
b10110010 e
#244
0!
0#
#245
1!
1#
b10010000 &
b10010000 8
b10010000 c
b10010000 e
#246
0!
0#
#247
1!
1#
b00100000 &
b00100000 8
b00100000 c
b00100000 e
#248
0!
0#
#249
1!
1#
b01011000 &
b01011000 8
b01011000 c
b01011000 e
#250
0!
0#
#251
1!
1#
b11110001 &
b11110001 8
b11110001 c
b11110001 e
#252
0!
0#
#253
1!
1#
b01110100 &
b01110100 8
b01110100 c
b01110100 e
#254
0!
0#
#255
1!
1#
b01101111 &
b01101111 8
b01101111 c
b01101111 e
#256
0!
0#
#257
1!
1#
b00011110 &
b00011110 8
b00011110 c
b00011110 e
#258
0!
0#
#259
1!
1#
b11100100 &
b11100100 8
b11100100 c
b11100100 e
#260
0!
0#
#261
1!
1#
b10111001 &
b10111001 8
b10111001 c
b10111001 e
#262
0!
0#
#263
1!
1#
b01100010 &
b01100010 8
b01100010 c
b01100010 e
#264
0!
0#
#265
1!
1#
b01001010 &
b01001010 8
b01001010 c
b01001010 e
#266
0!
0#
#267
1!
1#
b01100000 &
b01100000 8
b01100000 c
b01100000 e
#268
0!
0#
#269
1!
1#
b01000110 &
b01000110 8
b01000110 c
b01000110 e
#270
0!
0#
#271
1!
1#
b01111010 &
b01111010 8
b01111010 c
b01111010 e
#272
0!
0#
#273
1!
1#
b00100101 &
b00100101 8
b00100101 c
b00100101 e
#274
0!
0#
#275
1!
1#
b10011100 &
b10011100 8
b10011100 c
b10011100 e
#276
0!
0#
#277
1!
1#
b00000101 &
b00000101 8
b00000101 c
b00000101 e
#278
0!
0#
#279
1!
1#
b11001001 &
b11001001 8
b11001001 c
b11001001 e
#280
0!
0#
#281
1!
1#
b01001100 &
b01001100 8
b01001100 c
b01001100 e
#282
0!
0#
#283
1!
1#
b00110010 &
b00110010 8
b00110010 c
b00110010 e
#284
0!
0#
#285
1!
1#
b11110110 &
b11110110 8
b11110110 c
b11110110 e
#286
0!
0#
#287
1!
1#
b10111001 &
b10111001 8
b10111001 c
b10111001 e
#288
0!
0#
#289
1!
1#
b01101011 &
b01101011 8
b01101011 c
b01101011 e
#290
0!
0#
#291
1!
1#
b10000010 &
b10000010 8
b10000010 c
b10000010 e
#292
0!
0#
#293
1!
1#
b11101111 &
b11101111 8
b11101111 c
b11101111 e
#294
0!
0#
#295
1!
1#
b00110011 &
b00110011 8
b00110011 c
b00110011 e
#296
0!
0#
#297
1!
1#
b01101010 &
b01101010 8
b01101010 c
b01101010 e
#298
0!
0#
#299
1!
1#
b00001110 &
b00001110 8
b00001110 c
b00001110 e
#300
0!
0#
#301
1!
1#
b01000100 &
b01000100 8
b01000100 c
b01000100 e
#302
0!
0#
#303
1!
1#
b11100001 &
b11100001 8
b11100001 c
b11100001 e
#304
0!
0#
#305
1!
1#
b10001101 &
b10001101 8
b10001101 c
b10001101 e
#306
0!
0#
#307
1!
1#
b01100000 &
b01100000 8
b01100000 c
b01100000 e
#308
0!
0#
#309
1!
1#
b00100010 &
b00100010 8
b00100010 c
b00100010 e
#310
0!
0#
#311
1!
1#
b10010001 &
b10010001 8
b10010001 c
b10010001 e
#312
0!
0#
#313
1!
1#
b00100100 &
b00100100 8
b00100100 c
b00100100 e
#314
0!
0#
#315
1!
1#
b10000010 &
b10000010 8
b10000010 c
b10000010 e
#316
0!
0#
#317
1!
1#
b00110000 &
b00110000 8
b00110000 c
b00110000 e
#318
0!
0#
#319
1!
1#
b11011011 &
b11011011 8
b11011011 c
b11011011 e
#320
0!
0#
#321
1!
1#
b00000000 &
b00000000 8
b00000000 c
b00000000 e
#322
0!
0#
#323
1!
1#
b11100100 &
b11100100 8
b11100100 c
b11100100 e
#324
0!
0#
#325
1!
1#
b11011110 &
b11011110 8
b11011110 c
b11011110 e
#326
0!
0#
#327
1!
1#
b11101010 &
b11101010 8
b11101010 c
b11101010 e
#328
0!
0#
#329
1!
1#
b10111100 &
b10111100 8
b10111100 c
b10111100 e
#330
0!
0#
#331
1!
1#
b00001011 &
b00001011 8
b00001011 c
b00001011 e
#332
0!
0#
#333
1!
1#
b00011101 &
b00011101 8
b00011101 c
b00011101 e
#334
0!
0#
#335
1!
1#
b11001011 &
b11001011 8
b11001011 c
b11001011 e
#336
0!
0#
#337
1!
1#
b01000011 &
b01000011 8
b01000011 c
b01000011 e
#338
0!
0#
#339
1!
1#
b11100001 &
b11100001 8
b11100001 c
b11100001 e
#340
0!
0#
#341
1!
1#
b10110011 &
b10110011 8
b10110011 c
b10110011 e
#342
0!
0#
#343
1!
1#
0%
07
b0010 "$
#344
0!
0#
#345
1!
1#
b0010 "#
b0000 "$
0""
b00000000 &
b00000000 8
b00000000 c
b00000000 e
#346
0!
0#
#347
1!
1#
b0000 "#
#348
0!
0#
#349
1!
1#
#350
0!
0#
#351
1!
1#
#352
0!
0#
#353
1!
1#
1%
17
#354
0!
0#
#355
1!
1#
b10110010 &
b10110010 8
b0001 "$
b10110010 d
b10110010 c
b10110010 e
1""
#356
0!
0#
#357
1!
1#
b0001 "#
b00111110 &
b00111110 8
b00111110 c
b00111110 e
#358
0!
0#
#359
1!
1#
b00110010 &
b00110010 8
b00110010 c
b00110010 e
#360
0!
0#
#361
1!
1#
b10110010 &
b10110010 8
b10110010 c
b10110010 e
#362
0!
0#
#363
1!
1#
b00111110 &
b00111110 8
b00111110 c
b00111110 e
#364
0!
0#
#365
1!
1#
b00110010 &
b00110010 8
b00110010 c
b00110010 e
#366
0!
0#
#367
1!
1#
b00111010 &
b00111010 8
b00111010 c
b00111010 e
#368
0!
0#
#369
1!
1#
b01010110 &
b01010110 8
b01010110 c
b01010110 e
#370
0!
0#
#371
1!
1#
b00110011 &
b00110011 8
b00110011 c
b00110011 e
#372
0!
0#
#373
1!
1#
b11001110 &
b11001110 8
b11001110 c
b11001110 e
#374
0!
0#
#375
1!
1#
b00011010 &
b00011010 8
b00011010 c
b00011010 e
#376
0!
0#
#377
1!
1#
b00000000 &
b00000000 8
b00000000 c
b00000000 e
#378
0!
0#
#379
1!
1#
b00111001 &
b00111001 8
b00111001 c
b00111001 e
#380
0!
0#
#381
1!
1#
b10111011 &
b10111011 8
b10111011 c
b10111011 e
#382
0!
0#
#383
1!
1#
b01010100 &
b01010100 8
b01010100 c
b01010100 e
#384
0!
0#
#385
1!
1#
b01010000 &
b01010000 8
b01010000 c
b01010000 e
#386
0!
0#
#387
1!
1#
b10000001 &
b10000001 8
b10000001 c
b10000001 e
#388
0!
0#
#389
1!
1#
b10101100 &
b10101100 8
b10101100 c
b10101100 e
#390
0!
0#
#391
1!
1#
b11101111 &
b11101111 8
b11101111 c
b11101111 e
#392
0!
0#
#393
1!
1#
b01011110 &
b01011110 8
b01011110 c
b01011110 e
#394
0!
0#
#395
1!
1#
b00100000 &
b00100000 8
b00100000 c
b00100000 e
#396
0!
0#
#397
1!
1#
b00111001 &
b00111001 8
b00111001 c
b00111001 e
#398
0!
0#
#399
1!
1#
b10110001 &
b10110001 8
b10110001 c
b10110001 e
#400
0!
0#
#401
1!
1#
b00001001 &
b00001001 8
b00001001 c
b00001001 e
#402
0!
0#
#403
1!
1#
b11000001 &
b11000001 8
b11000001 c
b11000001 e
#404
0!
0#
#405
1!
1#
b11101010 &
b11101010 8
b11101010 c
b11101010 e
#406
0!
0#
#407
1!
1#
b00001111 &
b00001111 8
b00001111 c
b00001111 e
#408
0!
0#
#409
1!
1#
b00000111 &
b00000111 8
b00000111 c
b00000111 e
#410
0!
0#
#411
1!
1#
b00110101 &
b00110101 8
b00110101 c
b00110101 e
#412
0!
0#
#413
1!
1#
b10010100 &
b10010100 8
b10010100 c
b10010100 e
#414
0!
0#
#415
1!
1#
b11110010 &
b11110010 8
b11110010 c
b11110010 e
#416
0!
0#
#417
1!
1#
b01001100 &
b01001100 8
b01001100 c
b01001100 e
#418
0!
0#
#419
1!
1#
b01011111 &
b01011111 8
b01011111 c
b01011111 e
#420
0!
0#
#421
1!
1#
b00011110 &
b00011110 8
b00011110 c
b00011110 e
#422
0!
0#
#423
1!
1#
b10001001 &
b10001001 8
b10001001 c
b10001001 e
#424
0!
0#
#425
1!
1#
b10010010 &
b10010010 8
b10010010 c
b10010010 e
#426
0!
0#
#427
1!
1#
b11011111 &
b11011111 8
b11011111 c
b11011111 e
#428
0!
0#
#429
1!
1#
b10000001 &
b10000001 8
b10000001 c
b10000001 e
#430
0!
0#
#431
1!
1#
b11101110 &
b11101110 8
b11101110 c
b11101110 e
#432
0!
0#
#433
1!
1#
#434
0!
0#
#435
1!
1#
b11001100 &
b11001100 8
b11001100 c
b11001100 e
#436
0!
0#
#437
1!
1#
b11110011 &
b11110011 8
b11110011 c
b11110011 e
#438
0!
0#
#439
1!
1#
b00001101 &
b00001101 8
b00001101 c
b00001101 e
#440
0!
0#
#441
1!
1#
b00000111 &
b00000111 8
b00000111 c
b00000111 e
#442
0!
0#
#443
1!
1#
b11001001 &
b11001001 8
b11001001 c
b11001001 e
#444
0!
0#
#445
1!
1#
b10110110 &
b10110110 8
b10110110 c
b10110110 e
#446
0!
0#
#447
1!
1#
b10111011 &
b10111011 8
b10111011 c
b10111011 e
#448
0!
0#
#449
1!
1#
b01101111 &
b01101111 8
b01101111 c
b01101111 e
#450
0!
0#
#451
1!
1#
b10001111 &
b10001111 8
b10001111 c
b10001111 e
#452
0!
0#
#453
1!
1#
b11011010 &
b11011010 8
b11011010 c
b11011010 e
#454
0!
0#
#455
1!
1#
b01000111 &
b01000111 8
b01000111 c
b01000111 e
#456
0!
0#
#457
1!
1#
b00111101 &
b00111101 8
b00111101 c
b00111101 e
#458
0!
0#
#459
1!
1#
b11000100 &
b11000100 8
b11000100 c
b11000100 e
#460
0!
0#
#461
1!
1#
#462
0!
0#
#463
1!
1#
b01110000 &
b01110000 8
b01110000 c
b01110000 e
#464
0!
0#
#465
1!
1#
b10011000 &
b10011000 8
b10011000 c
b10011000 e
#466
0!
0#
#467
1!
1#
b11101111 &
b11101111 8
b11101111 c
b11101111 e
#468
0!
0#
#469
1!
1#
0%
07
b0010 "$
#470
0!
0#
#471
1!
1#
b0010 "#
b0000 "$
0""
b00000000 &
b00000000 8
b00000000 c
b00000000 e
#472
0!
0#
#473
1!
1#
b0000 "#
#474
0!
0#
#475
1!
1#
#476
0!
0#
#477
1!
1#
#478
0!
0#
#479
1!
1#
1%
17
#480
0!
0#
#481
1!
1#
b11101010 &
b11101010 8
b0001 "$
b11101010 d
b11101010 c
b11101010 e
1""
#482
0!
0#
#483
1!
1#
b0001 "#
b00010010 &
b00010010 8
b00010010 c
b00010010 e
#484
0!
0#
#485
1!
1#
b10001000 &
b10001000 8
b10001000 c
b10001000 e
#486
0!
0#
#487
1!
1#
b11101010 &
b11101010 8
b11101010 c
b11101010 e
#488
0!
0#
#489
1!
1#
b00010010 &
b00010010 8
b00010010 c
b00010010 e
#490
0!
0#
#491
1!
1#
b10001000 &
b10001000 8
b10001000 c
b10001000 e
#492
0!
0#
#493
1!
1#
b00000111 &
b00000111 8
b00000111 c
b00000111 e
#494
0!
0#
#495
1!
1#
b01010010 &
b01010010 8
b01010010 c
b01010010 e
#496
0!
0#
#497
1!
1#
b01011001 &
b01011001 8
b01011001 c
b01011001 e
#498
0!
0#
#499
1!
1#
b11100101 &
b11100101 8
b11100101 c
b11100101 e
#500
0!
0#
#501
1!
1#
b01010000 &
b01010000 8
b01010000 c
b01010000 e
#502
0!
0#
#503
1!
1#
b10110110 &
b10110110 8
b10110110 c
b10110110 e
#504
0!
0#
#505
1!
1#
b00011100 &
b00011100 8
b00011100 c
b00011100 e
#506
0!
0#
#507
1!
1#
b00110111 &
b00110111 8
b00110111 c
b00110111 e
#508
0!
0#
#509
1!
1#
b11011110 &
b11011110 8
b11011110 c
b11011110 e
#510
0!
0#
#511
1!
1#
b10111010 &
b10111010 8
b10111010 c
b10111010 e
#512
0!
0#
#513
1!
1#
b00010111 &
b00010111 8
b00010111 c
b00010111 e
#514
0!
0#
